{"bindto":"#chart","data":{"columns":[["Počet studentů",315,279,397,
                333,
                396,
                289,
                404,
                428,
                365
            ]
        ]
    }
}